…
### Exercise 9

``` r
laquinta <- laquinta %>%
  filter(country == "United States")

laquinta %>%
  count(state) %>%
  arrange(n)
```

    ## # A tibble: 48 × 2
    ##    state     n
    ##    <chr> <int>
    ##  1 ME        1
    ##  2 AK        2
    ##  3 NH        2
    ##  4 RI        2
    ##  5 SD        2
    ##  6 VT        2
    ##  7 WV        3
    ##  8 WY        3
    ##  9 IA        4
    ## 10 MI        4
    ## # ℹ 38 more rows

``` r
dennys %>% 
  count(state) %>%
  arrange(n)
```

    ## # A tibble: 51 × 2
    ##    state     n
    ##    <chr> <int>
    ##  1 DE        1
    ##  2 DC        2
    ##  3 VT        2
    ##  4 AK        3
    ##  5 IA        3
    ##  6 NH        3
    ##  7 SD        3
    ##  8 WV        3
    ##  9 LA        4
    ## 10 MT        4
    ## # ℹ 41 more rows
…
### Exercise 10

``` r
dennys %>%
  count(state) %>%
  inner_join(states, by = c("state" = "abbreviation")) %>%
  arrange(n)
```

    ## # A tibble: 51 × 4
    ##    state     n name                     area
    ##    <chr> <int> <chr>                   <dbl>
    ##  1 DE        1 Delaware               2489. 
    ##  2 DC        2 District of Columbia     68.3
    ##  3 VT        2 Vermont                9616. 
    ##  4 AK        3 Alaska               665384. 
    ##  5 IA        3 Iowa                  56273. 
    ##  6 NH        3 New Hampshire          9349. 
    ##  7 SD        3 South Dakota          77116. 
    ##  8 WV        3 West Virginia         24230. 
    ##  9 LA        4 Louisiana             52378. 
    ## 10 MT        4 Montana              147040. 
    ## # ℹ 41 more rows

``` r
laquinta %>%
  count(state) %>%
  inner_join(states, by = c("state" = "abbreviation")) %>%
  arrange(n)
```

    ## # A tibble: 48 × 4
    ##    state     n name             area
    ##    <chr> <int> <chr>           <dbl>
    ##  1 ME        1 Maine          35380.
    ##  2 AK        2 Alaska        665384.
    ##  3 NH        2 New Hampshire   9349.
    ##  4 RI        2 Rhode Island    1545.
    ##  5 SD        2 South Dakota   77116.
    ##  6 VT        2 Vermont         9616.
    ##  7 WV        3 West Virginia  24230.
    ##  8 WY        3 Wyoming        97813.
    ##  9 IA        4 Iowa           56273.
    ## 10 MI        4 Michigan       96714.
    ## # ℹ 38 more rows
…
